// ***** 1st sphere on 1st column, emerald *****
// ambient material
0.0215; // r
0.1745; // g
0.0215; // b
1.0f;   // a

// diffuse material
0.07568; // r
0.61424; // g
0.07568; // b
1.0f;    // a

// specular material
0.633;    // r
0.727811; // g
0.633;    // b
1.0f;     // a

// shininess
0.6 * 128;

// ***** 2nd sphere on 1st column, jade *****
// ambient material
0.135;  // r
0.2225; // g
0.1575; // b
1.0f;   // a

// diffuse material
0.54; // r
0.89; // g
0.63; // b
1.0f; // a

// specular material
0.316228; // r
0.316228; // g
0.316228; // b
1.0f;     // a

 // shininess
0.1 * 128;

// ***** 3rd sphere on 1st column, obsidian *****
// ambient material
0.05375; // r
0.05;    // g
0.06625; // b
1.0f;    // a

// diffuse material
0.18275; // r
0.17;    // g
0.22525; // b
1.0f;    // a

// specular material
0.332741; // r
0.328634; // g
0.346435; // b
1.0f;     // a

// shininess
0.3 * 128;

// ***** 4th sphere on 1st column, pearl *****
// ambient material
0.25;    // r
0.20725; // g
0.20725; // b
1.0f;    // a

// diffuse material
1.0;   // r
0.829; // g
0.829; // b
1.0f;  // a

// specular material
0.296648; // r
0.296648; // g
0.296648; // b
1.0f;     // a

// shininess
0.088 * 128;

// ***** 5th sphere on 1st column, ruby *****
// ambient material
0.1745;  // r
0.01175; // g
0.01175; // b
1.0f;    // a


// diffuse material
0.61424; // r
0.04136; // g
0.04136; // b
1.0f;    // a


// specular material
0.727811; // r
0.626959; // g
0.626959; // b
1.0f;     // a

// shininess
0.6 * 128;

// ***** 6th sphere on 1st column, turquoise *****
// ambient material
0.1;     // r
0.18725; // g
0.1745;  // b
1.0f;    // a


// diffuse material
0.396;   // r
0.74151; // g
0.69102; // b
1.0f;    // a


// specular material
0.297254; // r
0.30829;  // g
0.306678; // b
1.0f;     // a

// shininess
0.1 * 128;

// ***** 1st sphere on 2nd column, brass *****
// ambient material
0.329412; // r
0.223529; // g
0.027451; // b
1.0f;     // a


// diffuse material
0.780392; // r
0.568627; // g
0.113725; // b
1.0f;     // a


// specular material
0.992157; // r
0.941176; // g
0.807843; // b
1.0f;     // a

// shininess
0.21794872 * 128;

// ***** 2nd sphere on 2nd column, bronze *****
// ambient material
0.2125; // r
0.1275; // g
0.054;  // b
1.0f;   // a


// diffuse material
0.714;   // r
0.4284;  // g
0.18144; // b
1.0f;    // a


// specular material
0.393548; // r
0.271906; // g
0.166721; // b
1.0f;     // a

// shininess
0.2 * 128;

// ***** 3rd sphere on 2nd column, chrome *****
// ambient material
0.25; // r
0.25; // g
0.25; // b
1.0f; // a


// diffuse material
0.4;  // r
0.4;  // g
0.4;  // b
1.0f; // a


// specular material
0.774597; // r
0.774597; // g
0.774597; // b
1.0f;     // a

// shininess
0.6 * 128;

// ***** 4th sphere on 2nd column, copper *****
// ambient material
0.19125; // r
0.0735;  // g
0.0225;  // b
1.0f;    // a


// diffuse material
0.7038;  // r
0.27048; // g
0.0828;  // b
1.0f;    // a


// specular material
0.256777; // r
0.137622; // g
0.086014; // b
1.0f;     // a

// shininess
0.1 * 128;

// ***** 5th sphere on 2nd column, gold *****
// ambient material
0.24725; // r
0.1995;  // g
0.0745;  // b
1.0f;    // a


// diffuse material
0.75164; // r
0.60648; // g
0.22648; // b
1.0f;    // a


// specular material
0.628281; // r
0.555802; // g
0.366065; // b
1.0f;     // a

// shininess
0.4 * 128;


// ***** 6th sphere on 2nd column, silver *****
// ambient material
0.19225; // r
0.19225; // g
0.19225; // b
1.0f;    // a


// diffuse material
0.50754; // r
0.50754; // g
0.50754; // b
1.0f;    // a


// specular material
0.508273; // r
0.508273; // g
0.508273; // b
1.0f;     // a

// shininess
0.4 * 128;


// ***** 1st sphere on 3rd column, black *****
// ambient material
0.0;  // r
0.0;  // g
0.0;  // b
1.0f; // a


// diffuse material
0.01; // r
0.01; // g
0.01; // b
1.0f; // a


// specular material
0.50; // r
0.50; // g
0.50; // b
1.0f; // a

// shininess
0.25 * 128;


// ***** 2nd sphere on 3rd column, cyan *****
// ambient material
0.0;  // r
0.1;  // g
0.06; // b
1.0f; // a


// diffuse material
0.0;        // r
0.50980392; // g
0.50980392; // b
1.0f;       // a


// specular material
0.50196078; // r
0.50196078; // g
0.50196078; // b
1.0f;       // a

// shininess
0.25 * 128;

// ***** 3rd sphere on 2nd column, green *****
// ambient material
0.0;  // r
0.0;  // g
0.0;  // b
1.0f; // a


// diffuse material
0.1;  // r
0.35; // g
0.1;  // b
1.0f; // a


// specular material
0.45; // r
0.55; // g
0.45; // b
1.0f; // a

// shininess
0.25 * 128;

// ***** 4th sphere on 3rd column, red *****
// ambient material
0.0;  // r
0.0;  // g
0.0;  // b
1.0f; // a


// diffuse material
0.5;  // r
0.0;  // g
0.0;  // b
1.0f; // a


// specular material
0.7;  // r
0.6;  // g
0.6;  // b
1.0f; // a

// shininess
0.25 * 128;

// ***** 5th sphere on 3rd column, white *****
// ambient material
0.0;  // r
0.0;  // g
0.0;  // b
1.0f; // a


// diffuse material
0.55; // r
0.55; // g
0.55; // b
1.0f; // a


// specular material
0.70; // r
0.70; // g
0.70; // b
1.0f; // a

// shininess
0.25 * 128;

// ***** 6th sphere on 3rd column, yellow plastic *****
// ambient material
0.0;  // r
0.0;  // g
0.0;  // b
1.0f; // a


// diffuse material
0.5;  // r
0.5;  // g
0.0;  // b
1.0f; // a


// specular material
0.60; // r
0.60; // g
0.50; // b
1.0f; // a

// shininess
0.25 * 128;

// ***** 1st sphere on 4th column, black *****
// ambient material
0.02; // r
0.02; // g
0.02; // b
1.0f; // a


// diffuse material
0.01; // r
0.01; // g
0.01; // b
1.0f; // a


// specular material
0.4;  // r
0.4;  // g
0.4;  // b
1.0f; // a

// shininess
0.078125 * 128;

// ***** 2nd sphere on 4th column, cyan *****
// ambient material
0.0;  // r
0.05; // g
0.05; // b
1.0f; // a


// diffuse material
0.4;  // r
0.5;  // g
0.5;  // b
1.0f; // a


// specular material
0.04; // r
0.7;  // g
0.7;  // b
1.0f; // a

// shininess
0.078125 * 128;


// ***** 3rd sphere on 4th column, green *****
// ambient material
0.0;  // r
0.05; // g
0.0;  // b
1.0f; // a


// diffuse material
0.4;  // r
0.5;  // g
0.4;  // b
1.0f; // a


// specular material
0.04; // r
0.7;  // g
0.04; // b
1.0f; // a

// shininess
0.078125 * 128;

// ***** 4th sphere on 4th column, red *****
// ambient material
0.05; // r
0.0;  // g
0.0;  // b
1.0f; // a


// diffuse material
0.5;  // r
0.4;  // g
0.4;  // b
1.0f; // a


// specular material
0.7;  // r
0.04; // g
0.04; // b
1.0f; // a

// shininess
0.078125 * 128;


// ***** 5th sphere on 4th column, white *****
// ambient material
0.05; // r
0.05; // g
0.05; // b
1.0f; // a


// diffuse material
0.5;  // r
0.5;  // g
0.5;  // b
1.0f; // a


// specular material
0.7;  // r
0.7;  // g
0.7;  // b
1.0f; // a

// shininess
0.078125 * 128;

// ***** 6th sphere on 4th column, yellow rubber *****
// ambient material
0.05; // r
0.05; // g
0.0;  // b
1.0f; // a


// diffuse material
0.5;  // r
0.5;  // g
0.4;  // b
1.0f; // a


// specular material
0.7;  // r
0.7;  // g
0.04; // b
1.0f; // a

// shininess
0.078125 * 128;

