
D:\REPO_RTR_2020\rtr2020_prasanna_eknath_pawar\CUDA\WINDOWS\01_SeminarCode\01_HelloCuda>01_HelloCuda.exe
101.000000 1101.000000 = 1202.000000
201.000000 1201.000000 = 1402.000000
301.000000 1301.000000 = 1602.000000
401.000000 1401.000000 = 1802.000000
501.000000 1501.000000 = 2002.000000

D:\REPO_RTR_2020\rtr2020_prasanna_eknath_pawar\CUDA\WINDOWS\01_SeminarCode\01_HelloCuda>
