D:\RTR\RTR_Prasanna_Pawar_2018_2020\Windows\DS\05-Sorting\03-HeapSort\01-HeapSortUsingArray>01-HeapSortUsingArray.exe
Array Before HeapSort:
        Array[0] : 12
        Array[1] : 5
        Array[2] : 7
        Array[3] : 18
        Array[4] : 4
        Array[5] : 1
        Array[6] : 11
        Array[7] : 12
Array After HeapSort :
        Array[0] : 1
        Array[1] : 4
        Array[2] : 5
        Array[3] : 7
        Array[4] : 11
        Array[5] : 12
        Array[6] : 12
        Array[7] : 18

D:\RTR\RTR_Prasanna_Pawar_2018_2020\Windows\DS\05-Sorting\03-HeapSort\01-HeapSortUsingArray>