# Blender v3.0.0 OBJ File: ''
# www.blender.org
mtllib Y.mtl
o Text
v 0.116095 0.674146 -0.241491
v 0.078255 0.350665 0.006745
v 0.037749 -0.007009 0.001453
v 0.037125 -0.008389 0.099442
v 0.077744 0.350280 0.104748
v 0.112253 0.665646 0.362437
v 0.113003 0.667307 0.244451
v 0.087726 0.436400 0.058018
v 0.115344 0.672485 -0.123506
v -0.023013 0.689910 -0.242155
v -0.060853 0.366429 0.006082
v -0.101359 0.008754 0.000790
v -0.101983 0.007375 0.098779
v -0.061364 0.366043 0.104085
v -0.026855 0.681410 0.361773
v -0.026105 0.683070 0.243787
v -0.051382 0.452163 0.057355
v -0.023764 0.688249 -0.124169
v -0.023013 0.689910 -0.242155
v -0.022892 0.690671 -0.243681
v -0.022715 0.691421 -0.245198
v -0.022485 0.692157 -0.246698
v -0.022202 0.692873 -0.248173
v -0.021868 0.693567 -0.249613
v -0.021484 0.694235 -0.251012
v -0.021054 0.694871 -0.252361
v -0.020579 0.695474 -0.253652
v -0.020062 0.696039 -0.254879
v -0.019506 0.696564 -0.256035
v -0.018915 0.697045 -0.257112
v -0.018290 0.697480 -0.258106
v -0.017636 0.697866 -0.259010
v -0.016957 0.698202 -0.259820
v -0.016256 0.698485 -0.260530
v -0.015538 0.698713 -0.261138
v -0.014805 0.698886 -0.261639
v -0.014063 0.699003 -0.262031
v -0.013316 0.699062 -0.262311
v -0.012567 0.699064 -0.262479
v -0.011821 0.699009 -0.262532
v 0.107415 0.685497 -0.261964
v 0.108154 0.685384 -0.261903
v 0.108882 0.685215 -0.261729
v 0.109594 0.684990 -0.261441
v 0.110288 0.684711 -0.261043
v 0.110958 0.684379 -0.260535
v 0.111601 0.683996 -0.259921
v 0.112214 0.683564 -0.259204
v 0.112794 0.683086 -0.258388
v 0.113336 0.682564 -0.257478
v 0.113838 0.682002 -0.256479
v 0.114297 0.681401 -0.255397
v 0.114710 0.680767 -0.254237
v 0.115076 0.680102 -0.253006
v 0.115392 0.679409 -0.251710
v 0.115656 0.678694 -0.250358
v 0.115867 0.677959 -0.248957
v 0.116024 0.677210 -0.247514
v 0.116125 0.676449 -0.246038
v 0.116171 0.675682 -0.244536
v 0.116161 0.674913 -0.243018
v 0.116095 0.674146 -0.241491
v -0.060853 0.366429 0.006082
v -0.060850 0.366179 0.005331
v -0.060791 0.365925 0.004585
v -0.060676 0.365667 0.003847
v -0.060508 0.365408 0.003122
v -0.060285 0.365147 0.002414
v -0.060010 0.364888 0.001726
v -0.059685 0.364630 0.001064
v -0.059310 0.364377 0.000429
v -0.058888 0.364129 -0.000173
v -0.058422 0.363887 -0.000741
v -0.057914 0.363653 -0.001270
v -0.057367 0.363428 -0.001757
v -0.056783 0.363214 -0.002201
v -0.056167 0.363012 -0.002597
v -0.055521 0.362822 -0.002946
v -0.054850 0.362647 -0.003243
v -0.054157 0.362486 -0.003488
v -0.053445 0.362341 -0.003679
v -0.052720 0.362212 -0.003815
v -0.051984 0.362101 -0.003896
v -0.051242 0.362007 -0.003920
v 0.067993 0.348496 -0.003352
v 0.068737 0.348421 -0.003320
v 0.069478 0.348365 -0.003233
v 0.070212 0.348328 -0.003089
v 0.070936 0.348310 -0.002891
v 0.071646 0.348312 -0.002640
v 0.072337 0.348334 -0.002336
v 0.073005 0.348374 -0.001982
v 0.073647 0.348434 -0.001579
v 0.074259 0.348513 -0.001130
v 0.074838 0.348610 -0.000637
v 0.075381 0.348724 -0.000103
v 0.075884 0.348856 0.000469
v 0.076345 0.349004 0.001076
v 0.076761 0.349168 0.001714
v 0.077130 0.349347 0.002380
v 0.077449 0.349539 0.003070
v 0.077718 0.349744 0.003781
v 0.077933 0.349960 0.004508
v 0.078095 0.350187 0.005247
v 0.078203 0.350422 0.005994
v 0.078255 0.350665 0.006745
v -0.101359 0.008754 0.000790
v -0.101411 0.008019 0.000032
v -0.101407 0.007282 -0.000721
v -0.101346 0.006546 -0.001466
v -0.101231 0.005817 -0.002198
v -0.101060 0.005098 -0.002913
v -0.100836 0.004393 -0.003607
v -0.100559 0.003706 -0.004276
v -0.100231 0.003041 -0.004917
v -0.099853 0.002402 -0.005525
v -0.099429 0.001791 -0.006098
v -0.098960 0.001214 -0.006632
v -0.098448 0.000672 -0.007124
v -0.097897 0.000170 -0.007572
v -0.097311 -0.000291 -0.007973
v -0.096691 -0.000708 -0.008324
v -0.096041 -0.001078 -0.008624
v -0.095366 -0.001399 -0.008871
v -0.094669 -0.001670 -0.009064
v -0.093954 -0.001889 -0.009202
v -0.093224 -0.002055 -0.009283
v -0.092485 -0.002167 -0.009308
v 0.026751 -0.015678 -0.008740
v 0.027496 -0.015735 -0.008708
v 0.028244 -0.015737 -0.008619
v 0.028989 -0.015683 -0.008475
v 0.029727 -0.015575 -0.008275
v 0.030454 -0.015412 -0.008021
v 0.031167 -0.015197 -0.007714
v 0.031861 -0.014929 -0.007357
v 0.032533 -0.014611 -0.006950
v 0.033178 -0.014243 -0.006497
v 0.033793 -0.013829 -0.005999
v 0.034374 -0.013371 -0.005460
v 0.034919 -0.012871 -0.004883
v 0.035424 -0.012331 -0.004270
v 0.035887 -0.011756 -0.003626
v 0.036304 -0.011148 -0.002953
v 0.036674 -0.010510 -0.002257
v 0.036994 -0.009847 -0.001539
v 0.037263 -0.009161 -0.000805
v 0.037480 -0.008457 -0.000059
v 0.037642 -0.007738 0.000695
v 0.037749 -0.007009 0.001453
v -0.101983 0.007375 0.098779
v -0.102044 0.006619 0.099515
v -0.102049 0.005861 0.100247
v -0.101998 0.005105 0.100972
v -0.101892 0.004355 0.101685
v -0.101730 0.003616 0.102381
v -0.101515 0.002892 0.103058
v -0.101246 0.002186 0.103711
v -0.100926 0.001503 0.104337
v -0.100556 0.000847 0.104931
v -0.100139 0.000221 0.105492
v -0.099676 -0.000371 0.106016
v -0.099171 -0.000927 0.106499
v -0.098626 -0.001442 0.106939
v -0.098044 -0.001914 0.107334
v -0.097429 -0.002341 0.107682
v -0.096783 -0.002719 0.107979
v -0.096111 -0.003048 0.108226
v -0.095416 -0.003324 0.108420
v -0.094703 -0.003547 0.108561
v -0.093974 -0.003715 0.108647
v -0.093235 -0.003827 0.108678
v 0.026000 -0.017339 0.109246
v 0.026746 -0.017395 0.109222
v 0.027495 -0.017394 0.109143
v 0.028241 -0.017337 0.109010
v 0.028982 -0.017223 0.108822
v 0.029713 -0.017054 0.108582
v 0.030429 -0.016829 0.108291
v 0.031128 -0.016552 0.107950
v 0.031804 -0.016222 0.107561
v 0.032455 -0.015843 0.107126
v 0.033076 -0.015415 0.106648
v 0.033664 -0.014942 0.106130
v 0.034216 -0.014425 0.105574
v 0.034729 -0.013869 0.104983
v 0.035200 -0.013276 0.104361
v 0.035626 -0.012649 0.103712
v 0.036004 -0.011992 0.103038
v 0.036334 -0.011309 0.102343
v 0.036612 -0.010603 0.101633
v 0.036837 -0.009878 0.100910
v 0.037009 -0.009138 0.100178
v 0.037125 -0.008389 0.099442
v -0.061364 0.366043 0.104085
v -0.061370 0.365772 0.104829
v -0.061321 0.365496 0.105568
v -0.061216 0.365217 0.106300
v -0.061056 0.364936 0.107019
v -0.060843 0.364656 0.107723
v -0.060577 0.364376 0.108406
v -0.060260 0.364100 0.109065
v -0.059893 0.363828 0.109697
v -0.059479 0.363562 0.110298
v -0.059020 0.363304 0.110864
v -0.058519 0.363055 0.111392
v -0.057978 0.362816 0.111880
v -0.057400 0.362589 0.112325
v -0.056789 0.362375 0.112724
v -0.056148 0.362176 0.113075
v -0.055480 0.361991 0.113375
v -0.054790 0.361823 0.113624
v -0.054081 0.361672 0.113820
v -0.053357 0.361540 0.113962
v -0.052623 0.361426 0.114049
v -0.051881 0.361332 0.114080
v 0.067354 0.347820 0.114649
v 0.068098 0.347746 0.114624
v 0.068840 0.347693 0.114545
v 0.069577 0.347660 0.114410
v 0.070303 0.347648 0.114221
v 0.071016 0.347657 0.113978
v 0.071710 0.347687 0.113684
v 0.072383 0.347738 0.113340
v 0.073030 0.347809 0.112947
v 0.073648 0.347900 0.112508
v 0.074234 0.348012 0.112025
v 0.074783 0.348142 0.111502
v 0.075293 0.348290 0.110940
v 0.075762 0.348456 0.110344
v 0.076186 0.348638 0.109716
v 0.076563 0.348836 0.109060
v 0.076891 0.349048 0.108379
v 0.077169 0.349273 0.107678
v 0.077394 0.349510 0.106961
v 0.077566 0.349758 0.106230
v 0.077682 0.350015 0.105491
v 0.077744 0.350280 0.104748
v -0.026855 0.681410 0.361773
v -0.026753 0.682127 0.363325
v -0.026596 0.682835 0.364868
v -0.026385 0.683528 0.366394
v -0.026121 0.684203 0.367894
v -0.025805 0.684856 0.369361
v -0.025440 0.685483 0.370785
v -0.025027 0.686081 0.372159
v -0.024569 0.686647 0.373475
v -0.024068 0.687178 0.374727
v -0.023527 0.687670 0.375906
v -0.022949 0.688120 0.377006
v -0.022337 0.688527 0.378021
v -0.021695 0.688887 0.378946
v -0.021026 0.689200 0.379775
v -0.020335 0.689462 0.380503
v -0.019624 0.689674 0.381127
v -0.018898 0.689832 0.381643
v -0.018161 0.689938 0.382049
v -0.017417 0.689989 0.382341
v -0.016670 0.689986 0.382518
v -0.015925 0.689929 0.382580
v 0.103311 0.676417 0.383148
v 0.104050 0.676306 0.383093
v 0.104780 0.676142 0.382923
v 0.105497 0.675925 0.382638
v 0.106195 0.675657 0.382240
v 0.106872 0.675339 0.381730
v 0.107523 0.674974 0.381113
v 0.108146 0.674562 0.380390
v 0.108735 0.674107 0.379568
v 0.109289 0.673611 0.378649
v 0.109804 0.673077 0.377639
v 0.110276 0.672507 0.376543
v 0.110705 0.671905 0.375369
v 0.111086 0.671275 0.374122
v 0.111419 0.670619 0.372810
v 0.111700 0.669942 0.371439
v 0.111929 0.669248 0.370017
v 0.112104 0.668539 0.368553
v 0.112225 0.667821 0.367055
v 0.112290 0.667096 0.365530
v 0.112299 0.666370 0.363988
v 0.112253 0.665646 0.362437
v -0.026105 0.683070 0.243787
v -0.025991 0.683815 0.243433
v -0.025821 0.684549 0.243082
v -0.025598 0.685268 0.242734
v -0.025322 0.685969 0.242393
v -0.024995 0.686647 0.242059
v -0.024619 0.687299 0.241736
v -0.024195 0.687921 0.241424
v -0.023727 0.688510 0.241126
v -0.023216 0.689062 0.240843
v -0.022666 0.689574 0.240576
v -0.022079 0.690044 0.240328
v -0.021460 0.690468 0.240100
v -0.020810 0.690844 0.239892
v -0.020135 0.691171 0.239707
v -0.019438 0.691446 0.239544
v -0.018722 0.691668 0.239406
v -0.017992 0.691836 0.239292
v -0.017252 0.691948 0.239204
v -0.016506 0.692005 0.239141
v -0.015758 0.692005 0.239105
v -0.015012 0.691948 0.239095
v 0.104223 0.678437 0.239664
v 0.104963 0.678325 0.239680
v 0.105691 0.678157 0.239724
v 0.106405 0.677935 0.239793
v 0.107101 0.677660 0.239888
v 0.107774 0.677334 0.240009
v 0.108420 0.676957 0.240154
v 0.109037 0.676533 0.240322
v 0.109620 0.676064 0.240514
v 0.110166 0.675552 0.240727
v 0.110673 0.675000 0.240961
v 0.111137 0.674412 0.241214
v 0.111557 0.673790 0.241485
v 0.111928 0.673138 0.241772
v 0.112250 0.672460 0.242074
v 0.112521 0.671759 0.242389
v 0.112739 0.671039 0.242716
v 0.112903 0.670305 0.243051
v 0.113012 0.669561 0.243395
v 0.113065 0.668810 0.243744
v 0.113062 0.668057 0.244096
v 0.113003 0.667307 0.244451
v -0.051382 0.452163 0.057355
v -0.051218 0.453365 0.057370
v -0.050999 0.454553 0.057385
v -0.050727 0.455721 0.057400
v -0.050403 0.456864 0.057415
v -0.050028 0.457974 0.057430
v -0.049606 0.459045 0.057445
v -0.049138 0.460071 0.057459
v -0.048627 0.461047 0.057473
v -0.048076 0.461966 0.057487
v -0.047488 0.462825 0.057501
v -0.046866 0.463618 0.057514
v -0.046214 0.464340 0.057526
v -0.045535 0.464988 0.057537
v -0.044833 0.465558 0.057548
v -0.044112 0.466047 0.057558
v -0.043377 0.466451 0.057567
v -0.042630 0.466770 0.057575
v -0.041877 0.467001 0.057583
v -0.041122 0.467142 0.057589
v -0.040368 0.467193 0.057594
v -0.039620 0.467154 0.057598
v 0.079615 0.453643 0.058166
v 0.080352 0.453513 0.058169
v 0.081076 0.453295 0.058171
v 0.081780 0.452988 0.058172
v 0.082463 0.452595 0.058172
v 0.083119 0.452117 0.058170
v 0.083745 0.451558 0.058167
v 0.084339 0.450920 0.058164
v 0.084895 0.450208 0.058159
v 0.085412 0.449424 0.058153
v 0.085886 0.448574 0.058146
v 0.086315 0.447663 0.058138
v 0.086696 0.446694 0.058130
v 0.087028 0.445674 0.058120
v 0.087307 0.444609 0.058110
v 0.087534 0.443504 0.058098
v 0.087706 0.442366 0.058086
v 0.087823 0.441200 0.058074
v 0.087883 0.440014 0.058060
v 0.087887 0.438814 0.058047
v 0.087835 0.437607 0.058033
v 0.087726 0.436400 0.058018
v -0.023764 0.688249 -0.124169
v -0.023654 0.688983 -0.123795
v -0.023490 0.689707 -0.123423
v -0.023271 0.690416 -0.123055
v -0.023000 0.691107 -0.122692
v -0.022677 0.691776 -0.122338
v -0.022305 0.692419 -0.121994
v -0.021885 0.693032 -0.121662
v -0.021421 0.693612 -0.121343
v -0.020914 0.694155 -0.121040
v -0.020367 0.694660 -0.120754
v -0.019784 0.695122 -0.120488
v -0.019167 0.695539 -0.120241
v -0.018521 0.695910 -0.120016
v -0.017848 0.696231 -0.119814
v -0.017153 0.696501 -0.119636
v -0.016439 0.696719 -0.119483
v -0.015711 0.696884 -0.119356
v -0.014972 0.696993 -0.119256
v -0.014226 0.697048 -0.119183
v -0.013479 0.697047 -0.119138
v -0.012733 0.696990 -0.119120
v 0.106502 0.683478 -0.118552
v 0.107242 0.683367 -0.118562
v 0.107971 0.683200 -0.118601
v 0.108686 0.682981 -0.118667
v 0.109382 0.682708 -0.118760
v 0.110057 0.682385 -0.118880
v 0.110705 0.682013 -0.119027
v 0.111324 0.681593 -0.119198
v 0.111909 0.681130 -0.119394
v 0.112459 0.680624 -0.119613
v 0.112969 0.680079 -0.119855
v 0.113436 0.679497 -0.120117
v 0.113859 0.678883 -0.120398
v 0.114234 0.678239 -0.120697
v 0.114560 0.677570 -0.121011
v 0.114835 0.676878 -0.121340
v 0.115057 0.676168 -0.121682
v 0.115225 0.675444 -0.122034
v 0.115339 0.674709 -0.122394
v 0.115396 0.673969 -0.122761
v 0.115398 0.673226 -0.123132
v 0.115344 0.672485 -0.123506
vt 0.500000 0.000000
vt 0.750000 0.000000
vt 0.625000 0.000000
vt 0.875000 0.000000
vt 0.000000 0.000000
vt 1.000000 0.000000
vt 0.125000 0.000000
vt 0.375000 0.000000
vt 0.250000 0.000000
vt 0.500000 0.000000
vt 0.625000 0.000000
vt 0.750000 0.000000
vt 0.875000 0.000000
vt 1.000000 0.000000
vt 0.000000 0.000000
vt 0.125000 0.000000
vt 0.375000 0.000000
vt 0.250000 0.000000
vt 0.111111 0.023256
vt 0.000000 0.000000
vt 0.000000 0.023256
vt 0.111111 0.046512
vt 0.000000 0.046512
vt 0.111111 0.069767
vt 0.000000 0.069767
vt 0.111111 0.093023
vt 0.000000 0.093023
vt 0.111111 0.116279
vt 0.000000 0.116279
vt 0.111111 0.139535
vt 0.000000 0.139535
vt 0.111111 0.162791
vt 0.000000 0.162791
vt 0.111111 0.186047
vt 0.000000 0.186047
vt 0.111111 0.209302
vt 0.000000 0.209302
vt 0.111111 0.232558
vt 0.000000 0.232558
vt 0.111111 0.255814
vt 0.000000 0.255814
vt 0.111111 0.279070
vt 0.000000 0.279070
vt 0.111111 0.302326
vt 0.000000 0.302326
vt 0.111111 0.325581
vt 0.000000 0.325581
vt 0.111111 0.348837
vt 0.000000 0.348837
vt 0.111111 0.372093
vt 0.000000 0.372093
vt 0.111111 0.395349
vt 0.000000 0.395349
vt 0.111111 0.418605
vt 0.000000 0.418605
vt 0.111111 0.441860
vt 0.000000 0.441860
vt 0.111111 0.465116
vt 0.000000 0.465116
vt 0.111111 0.488372
vt 0.000000 0.488372
vt 0.111111 0.511628
vt 0.000000 0.511628
vt 0.000000 0.534884
vt 0.000000 0.558140
vt 0.111111 0.534884
vt 0.000000 0.581395
vt 0.111111 0.558140
vt 0.000000 0.604651
vt 0.111111 0.581395
vt 0.000000 0.627907
vt 0.111111 0.604651
vt 0.000000 0.651163
vt 0.111111 0.627907
vt 0.000000 0.674419
vt 0.111111 0.651163
vt 0.000000 0.697674
vt 0.111111 0.674419
vt 0.000000 0.720930
vt 0.111111 0.697674
vt 0.000000 0.744186
vt 0.111111 0.720930
vt 0.000000 0.767442
vt 0.111111 0.744186
vt 0.000000 0.790698
vt 0.111111 0.767442
vt 0.000000 0.813953
vt 0.111111 0.790698
vt 0.000000 0.837209
vt 0.111111 0.813953
vt 0.000000 0.860465
vt 0.111111 0.837209
vt 0.000000 0.883721
vt 0.111111 0.860465
vt 0.000000 0.906977
vt 0.111111 0.883721
vt 0.000000 0.930233
vt 0.111111 0.906977
vt 0.000000 0.953488
vt 0.111111 0.930233
vt 0.000000 0.976744
vt 0.111111 0.953488
vt 0.000000 1.000000
vt 0.111111 0.976744
vt 0.222222 0.000000
vt 0.111111 0.000000
vt 0.222222 0.023256
vt 0.222222 0.046512
vt 0.222222 0.069767
vt 0.222222 0.093023
vt 0.222222 0.116279
vt 0.222222 0.139535
vt 0.222222 0.162791
vt 0.222222 0.186047
vt 0.222222 0.209302
vt 0.222222 0.232558
vt 0.222222 0.255814
vt 0.222222 0.279070
vt 0.222222 0.302326
vt 0.222222 0.325581
vt 0.222222 0.348837
vt 0.222222 0.372093
vt 0.222222 0.395349
vt 0.222222 0.418605
vt 0.222222 0.441860
vt 0.222222 0.465116
vt 0.222222 0.511628
vt 0.222222 0.534884
vt 0.222222 0.558140
vt 0.222222 0.581395
vt 0.222222 0.604651
vt 0.222222 0.627907
vt 0.222222 0.651163
vt 0.222222 0.674419
vt 0.222222 0.697674
vt 0.222222 0.720930
vt 0.222222 0.744186
vt 0.222222 0.767442
vt 0.222222 0.790698
vt 0.222222 0.813953
vt 0.222222 0.837209
vt 0.222222 0.860465
vt 0.222222 0.883721
vt 0.222222 0.906977
vt 0.222222 0.930233
vt 0.222222 0.953488
vt 0.222222 0.976744
vt 0.222222 1.000000
vt 0.111111 1.000000
vt 0.333333 0.023256
vt 0.333333 0.046512
vt 0.333333 0.069767
vt 0.333333 0.093023
vt 0.333333 0.116279
vt 0.333333 0.139535
vt 0.333333 0.162791
vt 0.333333 0.186047
vt 0.333333 0.232558
vt 0.333333 0.279070
vt 0.333333 0.302326
vt 0.333333 0.348837
vt 0.333333 0.395349
vt 0.333333 0.418605
vt 0.333333 0.441860
vt 0.333333 0.488372
vt 0.222222 0.488372
vt 0.333333 0.511628
vt 0.333333 0.534884
vt 0.333333 0.558140
vt 0.333333 0.581395
vt 0.333333 0.604651
vt 0.333333 0.651163
vt 0.333333 0.674419
vt 0.333333 0.697674
vt 0.333333 0.744186
vt 0.333333 0.767442
vt 0.333333 0.813953
vt 0.333333 0.837209
vt 0.333333 0.860465
vt 0.333333 0.883721
vt 0.333333 0.906977
vt 0.333333 0.930233
vt 0.333333 0.953488
vt 0.333333 0.976744
vt 0.333333 1.000000
vt 0.444444 0.023256
vt 0.333333 0.000000
vt 0.444444 0.046512
vt 0.444444 0.069767
vt 0.444444 0.093023
vt 0.444444 0.116279
vt 0.444444 0.139535
vt 0.444444 0.162791
vt 0.444444 0.186047
vt 0.444444 0.209302
vt 0.333333 0.209302
vt 0.444444 0.232558
vt 0.444444 0.255814
vt 0.333333 0.255814
vt 0.444444 0.279070
vt 0.444444 0.302326
vt 0.444444 0.325581
vt 0.333333 0.325581
vt 0.444444 0.348837
vt 0.444444 0.372093
vt 0.333333 0.372093
vt 0.444444 0.395349
vt 0.444444 0.418605
vt 0.444444 0.441860
vt 0.444444 0.465116
vt 0.333333 0.465116
vt 0.444444 0.488372
vt 0.444444 0.511628
vt 0.444444 0.534884
vt 0.444444 0.558140
vt 0.444444 0.581395
vt 0.333333 0.627907
vt 0.444444 0.604651
vt 0.444444 0.627907
vt 0.444444 0.651163
vt 0.444444 0.674419
vt 0.333333 0.720930
vt 0.444444 0.697674
vt 0.444444 0.720930
vt 0.444444 0.744186
vt 0.333333 0.790698
vt 0.444444 0.767442
vt 0.444444 0.790698
vt 0.444444 0.813953
vt 0.444444 0.837209
vt 0.444444 0.860465
vt 0.444444 0.883721
vt 0.444444 0.906977
vt 0.444444 0.930233
vt 0.444444 0.953488
vt 0.444444 0.976744
vt 0.555556 0.000000
vt 0.444444 0.000000
vt 0.555556 0.023256
vt 0.555556 0.046512
vt 0.555556 0.069767
vt 0.555556 0.093023
vt 0.555556 0.116279
vt 0.555556 0.139535
vt 0.555556 0.162791
vt 0.555556 0.186047
vt 0.555556 0.209302
vt 0.555556 0.232558
vt 0.555556 0.255814
vt 0.555556 0.279070
vt 0.555556 0.302326
vt 0.555556 0.325581
vt 0.555556 0.348837
vt 0.555556 0.372093
vt 0.555556 0.395349
vt 0.555556 0.418605
vt 0.555556 0.441860
vt 0.555556 0.465116
vt 0.555556 0.511628
vt 0.555556 0.534884
vt 0.555556 0.558140
vt 0.555556 0.581395
vt 0.555556 0.604651
vt 0.555556 0.627907
vt 0.555556 0.651163
vt 0.555556 0.674419
vt 0.555556 0.697674
vt 0.555556 0.720930
vt 0.555556 0.744186
vt 0.555556 0.767442
vt 0.555556 0.790698
vt 0.555556 0.813953
vt 0.555556 0.837209
vt 0.555556 0.860465
vt 0.555556 0.883721
vt 0.555556 0.906977
vt 0.555556 0.930233
vt 0.555556 0.953488
vt 0.555556 0.976744
vt 0.555556 1.000000
vt 0.444444 1.000000
vt 0.666667 0.023256
vt 0.666667 0.046512
vt 0.666667 0.069767
vt 0.666667 0.093023
vt 0.666667 0.116279
vt 0.666667 0.139535
vt 0.666667 0.162791
vt 0.666667 0.186047
vt 0.666667 0.209302
vt 0.666667 0.232558
vt 0.666667 0.255814
vt 0.666667 0.279070
vt 0.666667 0.302326
vt 0.666667 0.325581
vt 0.666667 0.348837
vt 0.666667 0.372093
vt 0.666667 0.395349
vt 0.666667 0.418605
vt 0.666667 0.441860
vt 0.666667 0.465116
vt 0.666667 0.488372
vt 0.555556 0.488372
vt 0.666667 0.511628
vt 0.666667 0.534884
vt 0.666667 0.558140
vt 0.666667 0.581395
vt 0.666667 0.604651
vt 0.666667 0.627907
vt 0.666667 0.651163
vt 0.666667 0.674419
vt 0.666667 0.697674
vt 0.666667 0.720930
vt 0.666667 0.744186
vt 0.666667 0.767442
vt 0.666667 0.790698
vt 0.666667 0.813953
vt 0.666667 0.837209
vt 0.666667 0.860465
vt 0.666667 0.883721
vt 0.666667 0.906977
vt 0.666667 0.930233
vt 0.666667 0.953488
vt 0.666667 0.976744
vt 0.777778 0.023256
vt 0.666667 0.000000
vt 0.777778 0.046512
vt 0.777778 0.069767
vt 0.777778 0.093023
vt 0.777778 0.116279
vt 0.777778 0.139535
vt 0.777778 0.162791
vt 0.777778 0.186047
vt 0.777778 0.209302
vt 0.777778 0.232558
vt 0.777778 0.255814
vt 0.777778 0.279070
vt 0.777778 0.302326
vt 0.777778 0.325581
vt 0.777778 0.348837
vt 0.777778 0.372093
vt 0.777778 0.395349
vt 0.777778 0.418605
vt 0.777778 0.441860
vt 0.777778 0.465116
vt 0.777778 0.488372
vt 0.777778 0.511628
vt 0.777778 0.534884
vt 0.777778 0.558140
vt 0.777778 0.581395
vt 0.777778 0.604651
vt 0.777778 0.627907
vt 0.777778 0.651163
vt 0.777778 0.674419
vt 0.777778 0.697674
vt 0.777778 0.720930
vt 0.777778 0.744186
vt 0.777778 0.767442
vt 0.777778 0.790698
vt 0.777778 0.813953
vt 0.777778 0.837209
vt 0.777778 0.860465
vt 0.777778 0.883721
vt 0.777778 0.906977
vt 0.777778 0.930233
vt 0.777778 0.953488
vt 0.666667 1.000000
vt 0.777778 0.976744
vt 0.888889 0.000000
vt 0.777778 0.000000
vt 0.888889 0.023256
vt 0.888889 0.046512
vt 0.888889 0.069767
vt 0.888889 0.093023
vt 0.888889 0.116279
vt 0.888889 0.139535
vt 0.888889 0.162791
vt 0.888889 0.186047
vt 0.888889 0.209302
vt 0.888889 0.232558
vt 0.888889 0.255814
vt 0.888889 0.279070
vt 0.888889 0.302326
vt 0.888889 0.325581
vt 0.888889 0.348837
vt 0.888889 0.372093
vt 0.888889 0.395349
vt 0.888889 0.418605
vt 0.888889 0.441860
vt 0.888889 0.465116
vt 0.888889 0.511628
vt 0.888889 0.534884
vt 0.888889 0.558140
vt 0.888889 0.581395
vt 0.888889 0.604651
vt 0.888889 0.627907
vt 0.888889 0.651163
vt 0.888889 0.674419
vt 0.888889 0.697674
vt 0.888889 0.720930
vt 0.888889 0.744186
vt 0.888889 0.767442
vt 0.888889 0.790698
vt 0.888889 0.813953
vt 0.888889 0.837209
vt 0.888889 0.860465
vt 0.888889 0.883721
vt 0.888889 0.906977
vt 0.888889 0.930233
vt 0.888889 0.953488
vt 0.888889 0.976744
vt 0.888889 1.000000
vt 0.777778 1.000000
vt 1.000000 0.000000
vt 1.000000 0.023256
vt 1.000000 0.046512
vt 1.000000 0.069767
vt 1.000000 0.093023
vt 1.000000 0.116279
vt 1.000000 0.139535
vt 1.000000 0.162791
vt 1.000000 0.186047
vt 1.000000 0.209302
vt 1.000000 0.232558
vt 1.000000 0.255814
vt 1.000000 0.279070
vt 1.000000 0.302326
vt 1.000000 0.325581
vt 1.000000 0.348837
vt 1.000000 0.372093
vt 1.000000 0.395349
vt 1.000000 0.418605
vt 1.000000 0.441860
vt 0.888889 0.488372
vt 1.000000 0.465116
vt 1.000000 0.511628
vt 1.000000 0.534884
vt 1.000000 0.558140
vt 1.000000 0.581395
vt 1.000000 0.604651
vt 1.000000 0.627907
vt 1.000000 0.651163
vt 1.000000 0.674419
vt 1.000000 0.697674
vt 1.000000 0.720930
vt 1.000000 0.744186
vt 1.000000 0.767442
vt 1.000000 0.790698
vt 1.000000 0.813953
vt 1.000000 0.837209
vt 1.000000 0.860465
vt 1.000000 0.883721
vt 1.000000 0.906977
vt 1.000000 0.930233
vt 1.000000 0.953488
vt 1.000000 0.976744
vt 1.000000 1.000000
vt 1.000000 0.488372
vn 0.9936 -0.1126 0.0047
vn -0.9936 0.1126 -0.0047
vn -0.9936 0.0927 -0.0647
vn -0.9926 0.1199 -0.0193
vn -0.9902 0.1323 -0.0444
vn -0.9888 0.0699 -0.1316
vn -0.9864 0.1469 -0.0740
vn -0.9791 0.0468 -0.1981
vn -0.9813 0.1616 -0.1041
vn -0.9643 0.0233 -0.2637
vn -0.9750 0.1766 -0.1350
vn -0.9445 -0.0004 -0.3284
vn -0.9671 0.1920 -0.1669
vn -0.9197 -0.0242 -0.3918
vn -0.9574 0.2078 -0.2002
vn -0.8900 -0.0481 -0.4535
vn -0.9457 0.2242 -0.2352
vn -0.8552 -0.0720 -0.5133
vn -0.9315 0.2414 -0.2722
vn -0.8155 -0.0956 -0.5707
vn -0.9141 0.2595 -0.3116
vn -0.7710 -0.1189 -0.6256
vn -0.8929 0.2785 -0.3538
vn -0.7218 -0.1417 -0.6774
vn -0.8668 0.2987 -0.3992
vn -0.6681 -0.1639 -0.7258
vn -0.8346 0.3200 -0.4483
vn -0.6099 -0.1854 -0.7704
vn -0.7946 0.3425 -0.5013
vn -0.5477 -0.2060 -0.8109
vn -0.7447 0.3658 -0.5582
vn -0.4817 -0.2255 -0.8468
vn -0.6824 0.3895 -0.6185
vn -0.4123 -0.2438 -0.8778
vn -0.6046 0.4128 -0.6812
vn -0.3399 -0.2606 -0.9036
vn -0.5088 0.4337 -0.7437
vn -0.2650 -0.2759 -0.9239
vn -0.3928 0.4504 -0.8018
vn -0.1881 -0.2896 -0.9384
vn -0.2571 0.4598 -0.8500
vn -0.1098 -0.3015 -0.9471
vn -0.1053 0.4592 -0.8820
vn -0.0505 -0.3092 -0.9496
vn 0.0134 0.4512 -0.8923
vn -0.0110 -0.3136 -0.9495
vn 0.0963 0.4419 -0.8919
vn 0.2137 0.4230 -0.8805
vn 0.3615 0.3897 -0.8470
vn 0.0485 -0.3194 -0.9463
vn 0.4912 0.3502 -0.7975
vn 0.1273 -0.3254 -0.9369
vn 0.5998 0.3081 -0.7384
vn 0.2052 -0.3292 -0.9217
vn 0.6880 0.2662 -0.6750
vn 0.2814 -0.3310 -0.9006
vn 0.7580 0.2263 -0.6117
vn 0.3555 -0.3308 -0.8742
vn 0.8129 0.1893 -0.5508
vn 0.4270 -0.3284 -0.8425
vn 0.8558 0.1555 -0.4934
vn 0.4953 -0.3242 -0.8059
vn 0.8892 0.1247 -0.4401
vn 0.5602 -0.3180 -0.7649
vn 0.9154 0.0967 -0.3908
vn 0.6212 -0.3100 -0.7197
vn 0.9359 0.0713 -0.3451
vn 0.6782 -0.3004 -0.6707
vn 0.9519 0.0480 -0.3027
vn 0.7307 -0.2890 -0.6184
vn 0.9644 0.0266 -0.2631
vn 0.7788 -0.2763 -0.5632
vn 0.9741 0.0067 -0.2261
vn 0.8222 -0.2620 -0.5053
vn 0.9815 -0.0119 -0.1910
vn 0.8608 -0.2465 -0.4451
vn 0.9870 -0.0295 -0.1576
vn 0.8946 -0.2298 -0.3831
vn 0.9910 -0.0462 -0.1256
vn 0.9235 -0.2121 -0.3195
vn 0.9936 -0.0621 -0.0947
vn 0.9475 -0.1933 -0.2546
vn 0.9949 -0.0776 -0.0645
vn 0.9665 -0.1737 -0.1888
vn 0.9951 -0.0926 -0.0349
vn 0.9806 -0.1532 -0.1223
vn 0.9944 -0.1053 -0.0098
vn 0.9897 -0.1321 -0.0553
vn -0.9952 0.0942 -0.0237
vn -0.9941 0.1015 -0.0383
vn -0.9964 0.0665 -0.0522
vn -0.9955 0.0292 -0.0902
vn -0.9917 -0.0086 -0.1285
vn -0.9848 -0.0470 -0.1669
vn -0.9748 -0.0862 -0.2058
vn -0.9612 -0.1262 -0.2450
vn -0.9439 -0.1670 -0.2847
vn -0.9225 -0.2087 -0.3248
vn -0.8963 -0.2513 -0.3652
vn -0.8651 -0.2947 -0.4059
vn -0.8281 -0.3388 -0.4465
vn -0.7849 -0.3833 -0.4868
vn -0.7348 -0.4279 -0.5263
vn -0.6773 -0.4719 -0.5644
vn -0.6120 -0.5147 -0.6003
vn -0.5390 -0.5555 -0.6332
vn -0.4581 -0.5932 -0.6620
vn -0.3700 -0.6268 -0.6857
vn -0.2758 -0.6551 -0.7033
vn -0.1768 -0.6773 -0.7141
vn -0.0491 -0.6953 -0.7170
vn 0.0275 -0.7005 -0.7131
vn 0.1288 -0.7010 -0.7014
vn 0.2268 -0.6944 -0.6829
vn 0.3200 -0.6814 -0.6583
vn 0.4069 -0.6627 -0.6287
vn 0.4870 -0.6393 -0.5951
vn 0.5598 -0.6121 -0.5585
vn 0.6253 -0.5820 -0.5198
vn 0.6837 -0.5498 -0.4798
vn 0.7355 -0.5160 -0.4390
vn 0.7810 -0.4813 -0.3980
vn 0.8208 -0.4459 -0.3570
vn 0.8554 -0.4102 -0.3163
vn 0.8853 -0.3743 -0.2760
vn 0.9109 -0.3383 -0.2361
vn 0.9326 -0.3023 -0.1967
vn 0.9509 -0.2664 -0.1577
vn 0.9658 -0.2304 -0.1191
vn 0.9776 -0.1943 -0.0808
vn 0.9865 -0.1581 -0.0427
vn 0.9913 -0.1309 -0.0142
vn 0.9919 -0.1235 -0.0288
vn -0.9970 0.0652 0.0414
vn -0.9966 0.0269 0.0783
vn -0.9932 -0.0120 0.1155
vn -0.9869 -0.0515 0.1530
vn -0.9773 -0.0918 0.1909
vn -0.9643 -0.1328 0.2291
vn -0.9474 -0.1748 0.2679
vn -0.9265 -0.2176 0.3070
vn -0.8701 -0.3059 0.3864
vn -0.7909 -0.3968 0.4658
vn -0.7413 -0.4424 0.5046
vn -0.6196 -0.5313 0.5777
vn -0.4664 -0.6115 0.6391
vn -0.3786 -0.6458 0.6630
vn -0.2846 -0.6746 0.6811
vn -0.1100 -0.7093 0.6962
vn -0.1010 -0.6894 -0.7173
vn -0.0580 -0.7152 0.6965
vn 0.0186 -0.7203 0.6934
vn 0.1200 -0.7205 0.6830
vn 0.2182 -0.7134 0.6659
vn 0.3116 -0.6997 0.6428
vn 0.4795 -0.6558 0.5830
vn 0.5528 -0.6277 0.5481
vn 0.6188 -0.5965 0.5111
vn 0.7299 -0.5283 0.4337
vn 0.7759 -0.4924 0.3942
vn 0.8513 -0.4191 0.3155
vn 0.8818 -0.3821 0.2766
vn 0.9079 -0.3450 0.2380
vn 0.9301 -0.3079 0.2000
vn 0.9488 -0.2709 0.1622
vn 0.9642 -0.2338 0.1249
vn 0.9765 -0.1967 0.0877
vn 0.9859 -0.1595 0.0508
vn 0.9911 -0.1314 0.0231
vn -0.9943 0.0909 0.0546
vn -0.9955 0.0937 0.0137
vn -0.9904 0.0663 0.1209
vn -0.9815 0.0413 0.1867
vn -0.9676 0.0159 0.2519
vn -0.9487 -0.0097 0.3160
vn -0.9247 -0.0353 0.3790
vn -0.8957 -0.0610 0.4404
vn -0.8618 -0.0865 0.4998
vn -0.8228 -0.1118 0.5571
vn -0.9008 -0.2613 0.3466
vn -0.7790 -0.1367 0.6119
vn -0.7305 -0.1610 0.6636
vn -0.8337 -0.3511 0.4262
vn -0.6774 -0.1847 0.7121
vn -0.6198 -0.2075 0.7568
vn -0.5581 -0.2292 0.7974
vn -0.6843 -0.4875 0.5422
vn -0.4926 -0.2497 0.8336
vn -0.4235 -0.2689 0.8650
vn -0.5469 -0.5730 0.6104
vn -0.3515 -0.2865 0.8913
vn -0.2768 -0.3025 0.9120
vn -0.2001 -0.3166 0.9272
vn -0.1219 -0.3287 0.9365
vn -0.1858 -0.6971 0.6924
vn -0.0626 -0.3364 0.9396
vn -0.0231 -0.3409 0.9398
vn 0.0365 -0.3466 0.9373
vn 0.1155 -0.3523 0.9287
vn 0.1935 -0.3558 0.9143
vn 0.3990 -0.6802 0.6149
vn 0.2700 -0.3570 0.8942
vn 0.3445 -0.3559 0.8687
vn 0.4163 -0.3527 0.8380
vn 0.4852 -0.3474 0.8024
vn 0.6777 -0.5632 0.4728
vn 0.5505 -0.3401 0.7624
vn 0.6121 -0.3308 0.7182
vn 0.6696 -0.3197 0.6703
vn 0.8162 -0.4559 0.3547
vn 0.7229 -0.3069 0.6190
vn 0.7717 -0.2925 0.5647
vn 0.8158 -0.2767 0.5079
vn 0.8552 -0.2594 0.4487
vn 0.8897 -0.2409 0.3876
vn 0.9194 -0.2214 0.3250
vn 0.9442 -0.2007 0.2610
vn 0.9641 -0.1792 0.1960
vn 0.9790 -0.1568 0.1303
vn 0.9889 -0.1338 0.0641
vn -0.9928 0.1194 0.0100
vn -0.9945 0.1005 0.0285
vn -0.9907 0.1311 0.0355
vn -0.9873 0.1449 0.0655
vn -0.9826 0.1587 0.0960
vn -0.9767 0.1727 0.1273
vn -0.9692 0.1871 0.1598
vn -0.9601 0.2019 0.1936
vn -0.9488 0.2174 0.2291
vn -0.9351 0.2334 0.2667
vn -0.9182 0.2504 0.3068
vn -0.8976 0.2682 0.3498
vn -0.8722 0.2870 0.3961
vn -0.8407 0.3069 0.4461
vn -0.8014 0.3278 0.5002
vn -0.7523 0.3495 0.5584
vn -0.6908 0.3715 0.6203
vn -0.6139 0.3928 0.6846
vn -0.5189 0.4121 0.7489
vn -0.4036 0.4271 0.8091
vn -0.2685 0.4350 0.8594
vn -0.1170 0.4336 0.8935
vn 0.0848 0.4159 0.9054
vn 0.2026 0.3974 0.8950
vn 0.3510 0.3648 0.8624
vn 0.4814 0.3268 0.8133
vn 0.5909 0.2864 0.7542
vn 0.6798 0.2462 0.6908
vn 0.7505 0.2081 0.6272
vn 0.8061 0.1728 0.5658
vn 0.8497 0.1407 0.5081
vn 0.8838 0.1115 0.4543
vn 0.9105 0.0850 0.4046
vn 0.9315 0.0609 0.3585
vn 0.9480 0.0389 0.3157
vn 0.9610 0.0186 0.2757
vn 0.9712 -0.0002 0.2383
vn 0.9790 -0.0178 0.2028
vn 0.9850 -0.0343 0.1691
vn 0.9893 -0.0500 0.1367
vn 0.9923 -0.0651 0.1054
vn 0.9940 -0.0796 0.0749
vn 0.9946 -0.0938 0.0449
vn 0.9942 -0.1057 0.0195
vn 0.9915 -0.1245 0.0379
vn -0.9827 0.1813 -0.0374
vn -0.9684 0.2406 -0.0659
vn -0.9496 0.2991 -0.0941
vn -0.9263 0.3565 -0.1222
vn -0.8984 0.4127 -0.1498
vn -0.8661 0.4675 -0.1770
vn -0.8292 0.5206 -0.2037
vn -0.7877 0.5717 -0.2296
vn -0.7415 0.6207 -0.2547
vn -0.6908 0.6670 -0.2789
vn -0.6356 0.7105 -0.3019
vn -0.5760 0.7506 -0.3236
vn -0.5122 0.7871 -0.3437
vn -0.4443 0.8194 -0.3622
vn -0.3729 0.8471 -0.3786
vn -0.2981 0.8699 -0.3929
vn -0.2207 0.8874 -0.4048
vn -0.1411 0.8992 -0.4141
vn -0.0600 0.9051 -0.4209
vn 0.0219 0.9050 -0.4248
vn 0.0833 0.9009 -0.4258
vn 0.0019 0.4253 0.9050
vn 0.1244 0.8963 -0.4256
vn 0.1852 0.8865 -0.4240
vn 0.2650 0.8683 -0.4193
vn 0.3426 0.8444 -0.4118
vn 0.4175 0.8150 -0.4017
vn 0.4890 0.7807 -0.3891
vn 0.5566 0.7418 -0.3742
vn 0.6198 0.6988 -0.3571
vn 0.6785 0.6522 -0.3381
vn 0.7324 0.6024 -0.3174
vn 0.7813 0.5499 -0.2952
vn 0.8252 0.4952 -0.2717
vn 0.8639 0.4387 -0.2471
vn 0.8977 0.3807 -0.2216
vn 0.9265 0.3216 -0.1953
vn 0.9503 0.2616 -0.1684
vn 0.9694 0.2010 -0.1409
vn 0.9836 0.1400 -0.1130
vn 0.9932 0.0790 -0.0849
vn 0.9982 0.0178 -0.0565
vn 0.9987 -0.0432 -0.0280
vn -0.9894 0.1452 -0.0043
vn -0.9896 0.1427 -0.0190
vn -0.9816 0.1909 -0.0038
vn -0.9715 0.2369 -0.0032
vn -0.9590 0.2832 -0.0026
vn -0.9439 0.3301 -0.0019
vn -0.9259 0.3777 -0.0013
vn -0.9045 0.4263 -0.0006
vn -0.8795 0.4760 0.0001
vn -0.8500 0.5267 0.0009
vn -0.8155 0.5788 0.0017
vn -0.7751 0.6318 0.0025
vn -0.7280 0.6855 0.0034
vn -0.6731 0.7396 0.0044
vn -0.6092 0.7930 0.0054
vn -0.5353 0.8446 0.0064
vn -0.4507 0.8926 0.0075
vn -0.3551 0.9348 0.0085
vn -0.2487 0.9685 0.0096
vn -0.1334 0.9910 0.0105
vn -0.0117 0.9998 0.0114
vn 0.0819 0.9966 0.0119
vn 0.1431 0.9896 0.0122
vn 0.2350 0.9719 0.0125
vn 0.3516 0.9360 0.0128
vn 0.4591 0.8883 0.0130
vn 0.5551 0.8317 0.0129
vn 0.6389 0.7691 0.0127
vn 0.7107 0.7034 0.0124
vn 0.7711 0.6366 0.0119
vn 0.8214 0.5702 0.0115
vn 0.8629 0.5052 0.0110
vn 0.8968 0.4423 0.0105
vn 0.9243 0.3816 0.0099
vn 0.9463 0.3232 0.0094
vn 0.9636 0.2671 0.0089
vn 0.9770 0.2131 0.0084
vn 0.9869 0.1610 0.0078
vn 0.9938 0.1105 0.0073
vn 0.9981 0.0614 0.0067
vn 0.9999 0.0135 0.0062
vn 0.9994 -0.0335 0.0057
vn 0.9966 -0.0823 -0.0096
vn 0.9968 -0.0799 0.0051
vn -0.9897 0.1424 0.0104
vn -0.9908 0.1355 -0.0045
vn -0.9831 0.1805 0.0299
vn -0.9691 0.2391 0.0600
vn -0.9506 0.2969 0.0901
vn -0.9276 0.3536 0.1198
vn -0.9001 0.4092 0.1493
vn -0.8681 0.4632 0.1783
vn -0.8314 0.5157 0.2068
vn -0.7902 0.5661 0.2345
vn -0.7443 0.6144 0.2615
vn -0.6939 0.6601 0.2875
vn -0.6390 0.7030 0.3122
vn -0.5796 0.7425 0.3357
vn -0.5160 0.7784 0.3575
vn -0.4484 0.8101 0.3775
vn -0.3773 0.8374 0.3955
vn -0.3027 0.8597 0.4113
vn -0.2255 0.8768 0.4246
vn -0.1461 0.8884 0.4352
vn -0.0651 0.8941 0.4430
vn 0.0166 0.8939 0.4480
vn 0.1190 0.8851 0.4499
vn 0.1796 0.8754 0.4487
vn 0.2594 0.8573 0.4446
vn 0.3371 0.8336 0.4375
vn 0.4120 0.8046 0.4276
vn 0.4836 0.7706 0.4150
vn 0.5513 0.7321 0.3999
vn 0.6148 0.6897 0.3826
vn 0.6737 0.6436 0.3632
vn 0.7279 0.5944 0.3419
vn 0.7771 0.5425 0.3190
vn 0.8213 0.4884 0.2947
vn 0.8605 0.4325 0.2691
vn 0.8946 0.3752 0.2426
vn 0.9238 0.3168 0.2151
vn 0.9480 0.2574 0.1870
vn 0.9674 0.1975 0.1582
vn 0.9821 0.1372 0.1289
vn 0.9921 0.0768 0.0993
vn 0.9974 0.0163 0.0694
vn 0.9982 -0.0440 0.0393
vn 0.9964 -0.0827 0.0198
vn 0.9959 -0.0896 0.0050
vn 0.0779 0.8898 0.4497
usemtl None
s off
f 5/1/1 7/2/1 6/3/1
f 5/1/1 8/4/1 7/2/1
f 8/4/1 1/5/1 9/6/1
f 8/4/1 2/7/1 1/5/1
f 5/1/1 2/7/1 8/4/1
f 4/8/1 2/7/1 5/1/1
f 4/8/1 3/9/1 2/7/1
f 14/10/2 15/11/2 16/12/2
f 14/10/2 16/12/2 17/13/2
f 17/13/2 18/14/2 10/15/2
f 17/13/2 10/15/2 11/16/2
f 14/10/2 17/13/2 11/16/2
f 13/17/2 14/10/2 11/16/2
f 13/17/2 11/16/2 12/18/2
s 1
f 64/19/3 19/20/4 20/21/5
f 65/22/6 20/21/5 21/23/7
f 66/24/8 21/23/7 22/25/9
f 67/26/10 22/25/9 23/27/11
f 68/28/12 23/27/11 24/29/13
f 69/30/14 24/29/13 25/31/15
f 70/32/16 25/31/15 26/33/17
f 71/34/18 26/33/17 27/35/19
f 72/36/20 27/35/19 28/37/21
f 73/38/22 28/37/21 29/39/23
f 74/40/24 29/39/23 30/41/25
f 75/42/26 30/41/25 31/43/27
f 76/44/28 31/43/27 32/45/29
f 77/46/30 32/45/29 33/47/31
f 78/48/32 33/47/31 34/49/33
f 79/50/34 34/49/33 35/51/35
f 80/52/36 35/51/35 36/53/37
f 81/54/38 36/53/37 37/55/39
f 82/56/40 37/55/39 38/57/41
f 83/58/42 38/57/41 39/59/43
f 84/60/44 39/59/43 40/61/45
f 85/62/46 40/61/45 41/63/47
f 42/64/48 85/62/46 41/63/47
f 43/65/49 86/66/50 42/64/48
f 44/67/51 87/68/52 43/65/49
f 45/69/53 88/70/54 44/67/51
f 46/71/55 89/72/56 45/69/53
f 47/73/57 90/74/58 46/71/55
f 48/75/59 91/76/60 47/73/57
f 49/77/61 92/78/62 48/75/59
f 50/79/63 93/80/64 49/77/61
f 51/81/65 94/82/66 50/79/63
f 52/83/67 95/84/68 51/81/65
f 53/85/69 96/86/70 52/83/67
f 54/87/71 97/88/72 53/85/69
f 55/89/73 98/90/74 54/87/71
f 56/91/75 99/92/76 55/89/73
f 57/93/77 100/94/78 56/91/75
f 58/95/79 101/96/80 57/93/77
f 59/97/81 102/98/82 58/95/79
f 60/99/83 103/100/84 59/97/81
f 61/101/85 104/102/86 60/99/83
f 62/103/87 105/104/88 61/101/85
f 64/19/3 107/105/89 63/106/90
f 65/22/6 108/107/91 64/19/3
f 66/24/8 109/108/92 65/22/6
f 67/26/10 110/109/93 66/24/8
f 68/28/12 111/110/94 67/26/10
f 69/30/14 112/111/95 68/28/12
f 70/32/16 113/112/96 69/30/14
f 71/34/18 114/113/97 70/32/16
f 72/36/20 115/114/98 71/34/18
f 73/38/22 116/115/99 72/36/20
f 74/40/24 117/116/100 73/38/22
f 75/42/26 118/117/101 74/40/24
f 76/44/28 119/118/102 75/42/26
f 77/46/30 120/119/103 76/44/28
f 78/48/32 121/120/104 77/46/30
f 79/50/34 122/121/105 78/48/32
f 80/52/36 123/122/106 79/50/34
f 81/54/38 124/123/107 80/52/36
f 82/56/40 125/124/108 81/54/38
f 83/58/42 126/125/109 82/56/40
f 84/60/44 127/126/110 83/58/42
f 129/127/111 84/60/44 85/62/46
f 130/128/112 85/62/46 86/66/50
f 131/129/113 86/66/50 87/68/52
f 132/130/114 87/68/52 88/70/54
f 133/131/115 88/70/54 89/72/56
f 134/132/116 89/72/56 90/74/58
f 135/133/117 90/74/58 91/76/60
f 136/134/118 91/76/60 92/78/62
f 137/135/119 92/78/62 93/80/64
f 138/136/120 93/80/64 94/82/66
f 139/137/121 94/82/66 95/84/68
f 140/138/122 95/84/68 96/86/70
f 141/139/123 96/86/70 97/88/72
f 142/140/124 97/88/72 98/90/74
f 143/141/125 98/90/74 99/92/76
f 144/142/126 99/92/76 100/94/78
f 145/143/127 100/94/78 101/96/80
f 146/144/128 101/96/80 102/98/82
f 147/145/129 102/98/82 103/100/84
f 148/146/130 103/100/84 104/102/86
f 149/147/131 104/102/86 105/104/88
f 150/148/132 105/104/88 106/149/133
f 152/150/134 107/105/89 108/107/91
f 153/151/135 108/107/91 109/108/92
f 154/152/136 109/108/92 110/109/93
f 155/153/137 110/109/93 111/110/94
f 156/154/138 111/110/94 112/111/95
f 157/155/139 112/111/95 113/112/96
f 158/156/140 113/112/96 114/113/97
f 159/157/141 114/113/97 115/114/98
f 116/115/99 159/157/141 115/114/98
f 161/158/142 116/115/99 117/116/100
f 118/117/101 161/158/142 117/116/100
f 163/159/143 118/117/101 119/118/102
f 164/160/144 119/118/102 120/119/103
f 121/120/104 164/160/144 120/119/103
f 166/161/145 121/120/104 122/121/105
f 123/122/106 166/161/145 122/121/105
f 168/162/146 123/122/106 124/123/107
f 169/163/147 124/123/107 125/124/108
f 170/164/148 125/124/108 126/125/109
f 127/126/110 170/164/148 126/125/109
f 172/165/149 127/126/110 128/166/150
f 173/167/151 128/166/150 129/127/111
f 174/168/152 129/127/111 130/128/112
f 175/169/153 130/128/112 131/129/113
f 176/170/154 131/129/113 132/130/114
f 133/131/115 176/170/154 132/130/114
f 134/132/116 177/171/155 133/131/115
f 179/172/156 134/132/116 135/133/117
f 180/173/157 135/133/117 136/134/118
f 181/174/158 136/134/118 137/135/119
f 138/136/120 181/174/158 137/135/119
f 183/175/159 138/136/120 139/137/121
f 184/176/160 139/137/121 140/138/122
f 141/139/123 184/176/160 140/138/122
f 186/177/161 141/139/123 142/140/124
f 187/178/162 142/140/124 143/141/125
f 188/179/163 143/141/125 144/142/126
f 189/180/164 144/142/126 145/143/127
f 190/181/165 145/143/127 146/144/128
f 191/182/166 146/144/128 147/145/129
f 192/183/167 147/145/129 148/146/130
f 193/184/168 148/146/130 149/147/131
f 194/185/169 149/147/131 150/148/132
f 196/186/170 151/187/171 152/150/134
f 197/188/172 152/150/134 153/151/135
f 198/189/173 153/151/135 154/152/136
f 199/190/174 154/152/136 155/153/137
f 200/191/175 155/153/137 156/154/138
f 201/192/176 156/154/138 157/155/139
f 202/193/177 157/155/139 158/156/140
f 203/194/178 158/156/140 159/157/141
f 204/195/179 159/157/141 160/196/180
f 205/197/181 160/196/180 161/158/142
f 206/198/182 161/158/142 162/199/183
f 207/200/184 162/199/183 163/159/143
f 208/201/185 163/159/143 164/160/144
f 209/202/186 164/160/144 165/203/187
f 210/204/188 165/203/187 166/161/145
f 211/205/189 166/161/145 167/206/190
f 212/207/191 167/206/190 168/162/146
f 213/208/192 168/162/146 169/163/147
f 214/209/193 169/163/147 170/164/148
f 215/210/194 170/164/148 171/211/195
f 216/212/196 171/211/195 172/165/149
f 217/213/197 172/165/149 173/167/151
f 174/168/152 217/213/197 173/167/151
f 175/169/153 218/214/198 174/168/152
f 176/170/154 219/215/199 175/169/153
f 177/171/155 220/216/200 176/170/154
f 178/217/201 221/218/202 177/171/155
f 179/172/156 222/219/203 178/217/201
f 180/173/157 223/220/204 179/172/156
f 181/174/158 224/221/205 180/173/157
f 182/222/206 225/223/207 181/174/158
f 183/175/159 226/224/208 182/222/206
f 184/176/160 227/225/209 183/175/159
f 185/226/210 228/227/211 184/176/160
f 186/177/161 229/228/212 185/226/210
f 187/178/162 230/229/213 186/177/161
f 188/179/163 231/230/214 187/178/162
f 189/180/164 232/231/215 188/179/163
f 190/181/165 233/232/216 189/180/164
f 191/182/166 234/233/217 190/181/165
f 192/183/167 235/234/218 191/182/166
f 193/184/168 236/235/219 192/183/167
f 194/185/169 237/236/220 193/184/168
f 196/186/170 239/237/221 195/238/222
f 197/188/172 240/239/223 196/186/170
f 198/189/173 241/240/224 197/188/172
f 199/190/174 242/241/225 198/189/173
f 200/191/175 243/242/226 199/190/174
f 201/192/176 244/243/227 200/191/175
f 202/193/177 245/244/228 201/192/176
f 203/194/178 246/245/229 202/193/177
f 204/195/179 247/246/230 203/194/178
f 205/197/181 248/247/231 204/195/179
f 206/198/182 249/248/232 205/197/181
f 207/200/184 250/249/233 206/198/182
f 208/201/185 251/250/234 207/200/184
f 209/202/186 252/251/235 208/201/185
f 210/204/188 253/252/236 209/202/186
f 211/205/189 254/253/237 210/204/188
f 212/207/191 255/254/238 211/205/189
f 213/208/192 256/255/239 212/207/191
f 214/209/193 257/256/240 213/208/192
f 215/210/194 258/257/241 214/209/193
f 216/212/196 259/258/242 215/210/194
f 261/259/243 216/212/196 217/213/197
f 262/260/244 217/213/197 218/214/198
f 263/261/245 218/214/198 219/215/199
f 264/262/246 219/215/199 220/216/200
f 265/263/247 220/216/200 221/218/202
f 266/264/248 221/218/202 222/219/203
f 267/265/249 222/219/203 223/220/204
f 268/266/250 223/220/204 224/221/205
f 269/267/251 224/221/205 225/223/207
f 270/268/252 225/223/207 226/224/208
f 271/269/253 226/224/208 227/225/209
f 272/270/254 227/225/209 228/227/211
f 273/271/255 228/227/211 229/228/212
f 274/272/256 229/228/212 230/229/213
f 275/273/257 230/229/213 231/230/214
f 276/274/258 231/230/214 232/231/215
f 277/275/259 232/231/215 233/232/216
f 278/276/260 233/232/216 234/233/217
f 279/277/261 234/233/217 235/234/218
f 280/278/262 235/234/218 236/235/219
f 281/279/263 236/235/219 237/236/220
f 282/280/264 237/236/220 238/281/265
f 284/282/266 239/237/221 240/239/223
f 285/283/267 240/239/223 241/240/224
f 286/284/268 241/240/224 242/241/225
f 287/285/269 242/241/225 243/242/226
f 288/286/270 243/242/226 244/243/227
f 289/287/271 244/243/227 245/244/228
f 290/288/272 245/244/228 246/245/229
f 291/289/273 246/245/229 247/246/230
f 292/290/274 247/246/230 248/247/231
f 293/291/275 248/247/231 249/248/232
f 294/292/276 249/248/232 250/249/233
f 295/293/277 250/249/233 251/250/234
f 296/294/278 251/250/234 252/251/235
f 297/295/279 252/251/235 253/252/236
f 298/296/280 253/252/236 254/253/237
f 299/297/281 254/253/237 255/254/238
f 300/298/282 255/254/238 256/255/239
f 301/299/283 256/255/239 257/256/240
f 302/300/284 257/256/240 258/257/241
f 303/301/285 258/257/241 259/258/242
f 304/302/286 259/258/242 260/303/287
f 305/304/288 260/303/287 261/259/243
f 262/260/244 305/304/288 261/259/243
f 263/261/245 306/305/289 262/260/244
f 264/262/246 307/306/290 263/261/245
f 265/263/247 308/307/291 264/262/246
f 266/264/248 309/308/292 265/263/247
f 267/265/249 310/309/293 266/264/248
f 268/266/250 311/310/294 267/265/249
f 269/267/251 312/311/295 268/266/250
f 270/268/252 313/312/296 269/267/251
f 271/269/253 314/313/297 270/268/252
f 272/270/254 315/314/298 271/269/253
f 273/271/255 316/315/299 272/270/254
f 274/272/256 317/316/300 273/271/255
f 275/273/257 318/317/301 274/272/256
f 276/274/258 319/318/302 275/273/257
f 277/275/259 320/319/303 276/274/258
f 278/276/260 321/320/304 277/275/259
f 279/277/261 322/321/305 278/276/260
f 280/278/262 323/322/306 279/277/261
f 281/279/263 324/323/307 280/278/262
f 282/280/264 325/324/308 281/279/263
f 328/325/309 283/326/310 284/282/266
f 329/327/311 284/282/266 285/283/267
f 330/328/312 285/283/267 286/284/268
f 331/329/313 286/284/268 287/285/269
f 332/330/314 287/285/269 288/286/270
f 333/331/315 288/286/270 289/287/271
f 334/332/316 289/287/271 290/288/272
f 335/333/317 290/288/272 291/289/273
f 336/334/318 291/289/273 292/290/274
f 337/335/319 292/290/274 293/291/275
f 338/336/320 293/291/275 294/292/276
f 339/337/321 294/292/276 295/293/277
f 340/338/322 295/293/277 296/294/278
f 341/339/323 296/294/278 297/295/279
f 342/340/324 297/295/279 298/296/280
f 343/341/325 298/296/280 299/297/281
f 344/342/326 299/297/281 300/298/282
f 345/343/327 300/298/282 301/299/283
f 346/344/328 301/299/283 302/300/284
f 347/345/329 302/300/284 303/301/285
f 348/346/330 303/301/285 304/302/286
f 349/347/331 304/302/286 305/304/288
f 306/305/289 349/347/331 305/304/288
f 307/306/290 350/348/332 306/305/289
f 308/307/291 351/349/333 307/306/290
f 309/308/292 352/350/334 308/307/291
f 310/309/293 353/351/335 309/308/292
f 311/310/294 354/352/336 310/309/293
f 312/311/295 355/353/337 311/310/294
f 313/312/296 356/354/338 312/311/295
f 314/313/297 357/355/339 313/312/296
f 315/314/298 358/356/340 314/313/297
f 316/315/299 359/357/341 315/314/298
f 317/316/300 360/358/342 316/315/299
f 318/317/301 361/359/343 317/316/300
f 319/318/302 362/360/344 318/317/301
f 320/319/303 363/361/345 319/318/302
f 321/320/304 364/362/346 320/319/303
f 322/321/305 365/363/347 321/320/304
f 323/322/306 366/364/348 322/321/305
f 324/323/307 367/365/349 323/322/306
f 325/324/308 368/366/350 324/323/307
f 326/367/351 369/368/352 325/324/308
f 328/325/309 371/369/353 327/370/354
f 329/327/311 372/371/355 328/325/309
f 330/328/312 373/372/356 329/327/311
f 331/329/313 374/373/357 330/328/312
f 332/330/314 375/374/358 331/329/313
f 333/331/315 376/375/359 332/330/314
f 334/332/316 377/376/360 333/331/315
f 335/333/317 378/377/361 334/332/316
f 336/334/318 379/378/362 335/333/317
f 337/335/319 380/379/363 336/334/318
f 338/336/320 381/380/364 337/335/319
f 339/337/321 382/381/365 338/336/320
f 340/338/322 383/382/366 339/337/321
f 341/339/323 384/383/367 340/338/322
f 342/340/324 385/384/368 341/339/323
f 343/341/325 386/385/369 342/340/324
f 344/342/326 387/386/370 343/341/325
f 345/343/327 388/387/371 344/342/326
f 346/344/328 389/388/372 345/343/327
f 347/345/329 390/389/373 346/344/328
f 348/346/330 391/390/374 347/345/329
f 393/391/375 348/346/330 349/347/331
f 394/392/376 349/347/331 350/348/332
f 395/393/377 350/348/332 351/349/333
f 396/394/378 351/349/333 352/350/334
f 397/395/379 352/350/334 353/351/335
f 398/396/380 353/351/335 354/352/336
f 399/397/381 354/352/336 355/353/337
f 400/398/382 355/353/337 356/354/338
f 401/399/383 356/354/338 357/355/339
f 402/400/384 357/355/339 358/356/340
f 403/401/385 358/356/340 359/357/341
f 404/402/386 359/357/341 360/358/342
f 405/403/387 360/358/342 361/359/343
f 406/404/388 361/359/343 362/360/344
f 407/405/389 362/360/344 363/361/345
f 408/406/390 363/361/345 364/362/346
f 409/407/391 364/362/346 365/363/347
f 410/408/392 365/363/347 366/364/348
f 411/409/393 366/364/348 367/365/349
f 412/410/394 367/365/349 368/366/350
f 413/411/395 368/366/350 369/368/352
f 414/412/396 369/368/352 370/413/397
f 372/371/355 19/414/4 371/369/353
f 373/372/356 20/415/5 372/371/355
f 374/373/357 21/416/7 373/372/356
f 375/374/358 22/417/9 374/373/357
f 376/375/359 23/418/11 375/374/358
f 377/376/360 24/419/13 376/375/359
f 378/377/361 25/420/15 377/376/360
f 379/378/362 26/421/17 378/377/361
f 380/379/363 27/422/19 379/378/362
f 381/380/364 28/423/21 380/379/363
f 382/381/365 29/424/23 381/380/364
f 383/382/366 30/425/25 382/381/365
f 384/383/367 31/426/27 383/382/366
f 385/384/368 32/427/29 384/383/367
f 386/385/369 33/428/31 385/384/368
f 387/386/370 34/429/33 386/385/369
f 388/387/371 35/430/35 387/386/370
f 389/388/372 36/431/37 388/387/371
f 390/389/373 37/432/39 389/388/372
f 391/390/374 38/433/41 390/389/373
f 392/434/398 39/435/43 391/390/374
f 41/436/47 392/434/398 393/391/375
f 42/437/48 393/391/375 394/392/376
f 43/438/49 394/392/376 395/393/377
f 44/439/51 395/393/377 396/394/378
f 45/440/53 396/394/378 397/395/379
f 46/441/55 397/395/379 398/396/380
f 47/442/57 398/396/380 399/397/381
f 48/443/59 399/397/381 400/398/382
f 49/444/61 400/398/382 401/399/383
f 50/445/63 401/399/383 402/400/384
f 51/446/65 402/400/384 403/401/385
f 52/447/67 403/401/385 404/402/386
f 53/448/69 404/402/386 405/403/387
f 54/449/71 405/403/387 406/404/388
f 55/450/73 406/404/388 407/405/389
f 56/451/75 407/405/389 408/406/390
f 57/452/77 408/406/390 409/407/391
f 58/453/79 409/407/391 410/408/392
f 59/454/81 410/408/392 411/409/393
f 60/455/83 411/409/393 412/410/394
f 61/456/85 412/410/394 413/411/395
f 62/457/87 413/411/395 414/412/396
f 64/19/3 63/106/90 19/20/4
f 65/22/6 64/19/3 20/21/5
f 66/24/8 65/22/6 21/23/7
f 67/26/10 66/24/8 22/25/9
f 68/28/12 67/26/10 23/27/11
f 69/30/14 68/28/12 24/29/13
f 70/32/16 69/30/14 25/31/15
f 71/34/18 70/32/16 26/33/17
f 72/36/20 71/34/18 27/35/19
f 73/38/22 72/36/20 28/37/21
f 74/40/24 73/38/22 29/39/23
f 75/42/26 74/40/24 30/41/25
f 76/44/28 75/42/26 31/43/27
f 77/46/30 76/44/28 32/45/29
f 78/48/32 77/46/30 33/47/31
f 79/50/34 78/48/32 34/49/33
f 80/52/36 79/50/34 35/51/35
f 81/54/38 80/52/36 36/53/37
f 82/56/40 81/54/38 37/55/39
f 83/58/42 82/56/40 38/57/41
f 84/60/44 83/58/42 39/59/43
f 85/62/46 84/60/44 40/61/45
f 42/64/48 86/66/50 85/62/46
f 43/65/49 87/68/52 86/66/50
f 44/67/51 88/70/54 87/68/52
f 45/69/53 89/72/56 88/70/54
f 46/71/55 90/74/58 89/72/56
f 47/73/57 91/76/60 90/74/58
f 48/75/59 92/78/62 91/76/60
f 49/77/61 93/80/64 92/78/62
f 50/79/63 94/82/66 93/80/64
f 51/81/65 95/84/68 94/82/66
f 52/83/67 96/86/70 95/84/68
f 53/85/69 97/88/72 96/86/70
f 54/87/71 98/90/74 97/88/72
f 55/89/73 99/92/76 98/90/74
f 56/91/75 100/94/78 99/92/76
f 57/93/77 101/96/80 100/94/78
f 58/95/79 102/98/82 101/96/80
f 59/97/81 103/100/84 102/98/82
f 60/99/83 104/102/86 103/100/84
f 61/101/85 105/104/88 104/102/86
f 62/103/87 106/149/133 105/104/88
f 64/19/3 108/107/91 107/105/89
f 65/22/6 109/108/92 108/107/91
f 66/24/8 110/109/93 109/108/92
f 67/26/10 111/110/94 110/109/93
f 68/28/12 112/111/95 111/110/94
f 69/30/14 113/112/96 112/111/95
f 70/32/16 114/113/97 113/112/96
f 71/34/18 115/114/98 114/113/97
f 72/36/20 116/115/99 115/114/98
f 73/38/22 117/116/100 116/115/99
f 74/40/24 118/117/101 117/116/100
f 75/42/26 119/118/102 118/117/101
f 76/44/28 120/119/103 119/118/102
f 77/46/30 121/120/104 120/119/103
f 78/48/32 122/121/105 121/120/104
f 79/50/34 123/122/106 122/121/105
f 80/52/36 124/123/107 123/122/106
f 81/54/38 125/124/108 124/123/107
f 82/56/40 126/125/109 125/124/108
f 83/58/42 127/126/110 126/125/109
f 84/60/44 128/166/150 127/126/110
f 129/127/111 128/166/150 84/60/44
f 130/128/112 129/127/111 85/62/46
f 131/129/113 130/128/112 86/66/50
f 132/130/114 131/129/113 87/68/52
f 133/131/115 132/130/114 88/70/54
f 134/132/116 133/131/115 89/72/56
f 135/133/117 134/132/116 90/74/58
f 136/134/118 135/133/117 91/76/60
f 137/135/119 136/134/118 92/78/62
f 138/136/120 137/135/119 93/80/64
f 139/137/121 138/136/120 94/82/66
f 140/138/122 139/137/121 95/84/68
f 141/139/123 140/138/122 96/86/70
f 142/140/124 141/139/123 97/88/72
f 143/141/125 142/140/124 98/90/74
f 144/142/126 143/141/125 99/92/76
f 145/143/127 144/142/126 100/94/78
f 146/144/128 145/143/127 101/96/80
f 147/145/129 146/144/128 102/98/82
f 148/146/130 147/145/129 103/100/84
f 149/147/131 148/146/130 104/102/86
f 150/148/132 149/147/131 105/104/88
f 152/150/134 151/187/171 107/105/89
f 153/151/135 152/150/134 108/107/91
f 154/152/136 153/151/135 109/108/92
f 155/153/137 154/152/136 110/109/93
f 156/154/138 155/153/137 111/110/94
f 157/155/139 156/154/138 112/111/95
f 158/156/140 157/155/139 113/112/96
f 159/157/141 158/156/140 114/113/97
f 116/115/99 160/196/180 159/157/141
f 161/158/142 160/196/180 116/115/99
f 118/117/101 162/199/183 161/158/142
f 163/159/143 162/199/183 118/117/101
f 164/160/144 163/159/143 119/118/102
f 121/120/104 165/203/187 164/160/144
f 166/161/145 165/203/187 121/120/104
f 123/122/106 167/206/190 166/161/145
f 168/162/146 167/206/190 123/122/106
f 169/163/147 168/162/146 124/123/107
f 170/164/148 169/163/147 125/124/108
f 127/126/110 171/211/195 170/164/148
f 172/165/149 171/211/195 127/126/110
f 173/167/151 172/165/149 128/166/150
f 174/168/152 173/167/151 129/127/111
f 175/169/153 174/168/152 130/128/112
f 176/170/154 175/169/153 131/129/113
f 133/131/115 177/171/155 176/170/154
f 134/132/116 178/217/201 177/171/155
f 179/172/156 178/217/201 134/132/116
f 180/173/157 179/172/156 135/133/117
f 181/174/158 180/173/157 136/134/118
f 138/136/120 182/222/206 181/174/158
f 183/175/159 182/222/206 138/136/120
f 184/176/160 183/175/159 139/137/121
f 141/139/123 185/226/210 184/176/160
f 186/177/161 185/226/210 141/139/123
f 187/178/162 186/177/161 142/140/124
f 188/179/163 187/178/162 143/141/125
f 189/180/164 188/179/163 144/142/126
f 190/181/165 189/180/164 145/143/127
f 191/182/166 190/181/165 146/144/128
f 192/183/167 191/182/166 147/145/129
f 193/184/168 192/183/167 148/146/130
f 194/185/169 193/184/168 149/147/131
f 196/186/170 195/238/222 151/187/171
f 197/188/172 196/186/170 152/150/134
f 198/189/173 197/188/172 153/151/135
f 199/190/174 198/189/173 154/152/136
f 200/191/175 199/190/174 155/153/137
f 201/192/176 200/191/175 156/154/138
f 202/193/177 201/192/176 157/155/139
f 203/194/178 202/193/177 158/156/140
f 204/195/179 203/194/178 159/157/141
f 205/197/181 204/195/179 160/196/180
f 206/198/182 205/197/181 161/158/142
f 207/200/184 206/198/182 162/199/183
f 208/201/185 207/200/184 163/159/143
f 209/202/186 208/201/185 164/160/144
f 210/204/188 209/202/186 165/203/187
f 211/205/189 210/204/188 166/161/145
f 212/207/191 211/205/189 167/206/190
f 213/208/192 212/207/191 168/162/146
f 214/209/193 213/208/192 169/163/147
f 215/210/194 214/209/193 170/164/148
f 216/212/196 215/210/194 171/211/195
f 217/213/197 216/212/196 172/165/149
f 174/168/152 218/214/198 217/213/197
f 175/169/153 219/215/199 218/214/198
f 176/170/154 220/216/200 219/215/199
f 177/171/155 221/218/202 220/216/200
f 178/217/201 222/219/203 221/218/202
f 179/172/156 223/220/204 222/219/203
f 180/173/157 224/221/205 223/220/204
f 181/174/158 225/223/207 224/221/205
f 182/222/206 226/224/208 225/223/207
f 183/175/159 227/225/209 226/224/208
f 184/176/160 228/227/211 227/225/209
f 185/226/210 229/228/212 228/227/211
f 186/177/161 230/229/213 229/228/212
f 187/178/162 231/230/214 230/229/213
f 188/179/163 232/231/215 231/230/214
f 189/180/164 233/232/216 232/231/215
f 190/181/165 234/233/217 233/232/216
f 191/182/166 235/234/218 234/233/217
f 192/183/167 236/235/219 235/234/218
f 193/184/168 237/236/220 236/235/219
f 194/185/169 238/281/265 237/236/220
f 196/186/170 240/239/223 239/237/221
f 197/188/172 241/240/224 240/239/223
f 198/189/173 242/241/225 241/240/224
f 199/190/174 243/242/226 242/241/225
f 200/191/175 244/243/227 243/242/226
f 201/192/176 245/244/228 244/243/227
f 202/193/177 246/245/229 245/244/228
f 203/194/178 247/246/230 246/245/229
f 204/195/179 248/247/231 247/246/230
f 205/197/181 249/248/232 248/247/231
f 206/198/182 250/249/233 249/248/232
f 207/200/184 251/250/234 250/249/233
f 208/201/185 252/251/235 251/250/234
f 209/202/186 253/252/236 252/251/235
f 210/204/188 254/253/237 253/252/236
f 211/205/189 255/254/238 254/253/237
f 212/207/191 256/255/239 255/254/238
f 213/208/192 257/256/240 256/255/239
f 214/209/193 258/257/241 257/256/240
f 215/210/194 259/258/242 258/257/241
f 216/212/196 260/303/287 259/258/242
f 261/259/243 260/303/287 216/212/196
f 262/260/244 261/259/243 217/213/197
f 263/261/245 262/260/244 218/214/198
f 264/262/246 263/261/245 219/215/199
f 265/263/247 264/262/246 220/216/200
f 266/264/248 265/263/247 221/218/202
f 267/265/249 266/264/248 222/219/203
f 268/266/250 267/265/249 223/220/204
f 269/267/251 268/266/250 224/221/205
f 270/268/252 269/267/251 225/223/207
f 271/269/253 270/268/252 226/224/208
f 272/270/254 271/269/253 227/225/209
f 273/271/255 272/270/254 228/227/211
f 274/272/256 273/271/255 229/228/212
f 275/273/257 274/272/256 230/229/213
f 276/274/258 275/273/257 231/230/214
f 277/275/259 276/274/258 232/231/215
f 278/276/260 277/275/259 233/232/216
f 279/277/261 278/276/260 234/233/217
f 280/278/262 279/277/261 235/234/218
f 281/279/263 280/278/262 236/235/219
f 282/280/264 281/279/263 237/236/220
f 284/282/266 283/326/310 239/237/221
f 285/283/267 284/282/266 240/239/223
f 286/284/268 285/283/267 241/240/224
f 287/285/269 286/284/268 242/241/225
f 288/286/270 287/285/269 243/242/226
f 289/287/271 288/286/270 244/243/227
f 290/288/272 289/287/271 245/244/228
f 291/289/273 290/288/272 246/245/229
f 292/290/274 291/289/273 247/246/230
f 293/291/275 292/290/274 248/247/231
f 294/292/276 293/291/275 249/248/232
f 295/293/277 294/292/276 250/249/233
f 296/294/278 295/293/277 251/250/234
f 297/295/279 296/294/278 252/251/235
f 298/296/280 297/295/279 253/252/236
f 299/297/281 298/296/280 254/253/237
f 300/298/282 299/297/281 255/254/238
f 301/299/283 300/298/282 256/255/239
f 302/300/284 301/299/283 257/256/240
f 303/301/285 302/300/284 258/257/241
f 304/302/286 303/301/285 259/258/242
f 305/304/288 304/302/286 260/303/287
f 262/260/244 306/305/289 305/304/288
f 263/261/245 307/306/290 306/305/289
f 264/262/246 308/307/291 307/306/290
f 265/263/247 309/308/292 308/307/291
f 266/264/248 310/309/293 309/308/292
f 267/265/249 311/310/294 310/309/293
f 268/266/250 312/311/295 311/310/294
f 269/267/251 313/312/296 312/311/295
f 270/268/252 314/313/297 313/312/296
f 271/269/253 315/314/298 314/313/297
f 272/270/254 316/315/299 315/314/298
f 273/271/255 317/316/300 316/315/299
f 274/272/256 318/317/301 317/316/300
f 275/273/257 319/318/302 318/317/301
f 276/274/258 320/319/303 319/318/302
f 277/275/259 321/320/304 320/319/303
f 278/276/260 322/321/305 321/320/304
f 279/277/261 323/322/306 322/321/305
f 280/278/262 324/323/307 323/322/306
f 281/279/263 325/324/308 324/323/307
f 282/280/264 326/367/351 325/324/308
f 328/325/309 327/370/354 283/326/310
f 329/327/311 328/325/309 284/282/266
f 330/328/312 329/327/311 285/283/267
f 331/329/313 330/328/312 286/284/268
f 332/330/314 331/329/313 287/285/269
f 333/331/315 332/330/314 288/286/270
f 334/332/316 333/331/315 289/287/271
f 335/333/317 334/332/316 290/288/272
f 336/334/318 335/333/317 291/289/273
f 337/335/319 336/334/318 292/290/274
f 338/336/320 337/335/319 293/291/275
f 339/337/321 338/336/320 294/292/276
f 340/338/322 339/337/321 295/293/277
f 341/339/323 340/338/322 296/294/278
f 342/340/324 341/339/323 297/295/279
f 343/341/325 342/340/324 298/296/280
f 344/342/326 343/341/325 299/297/281
f 345/343/327 344/342/326 300/298/282
f 346/344/328 345/343/327 301/299/283
f 347/345/329 346/344/328 302/300/284
f 348/346/330 347/345/329 303/301/285
f 349/347/331 348/346/330 304/302/286
f 306/305/289 350/348/332 349/347/331
f 307/306/290 351/349/333 350/348/332
f 308/307/291 352/350/334 351/349/333
f 309/308/292 353/351/335 352/350/334
f 310/309/293 354/352/336 353/351/335
f 311/310/294 355/353/337 354/352/336
f 312/311/295 356/354/338 355/353/337
f 313/312/296 357/355/339 356/354/338
f 314/313/297 358/356/340 357/355/339
f 315/314/298 359/357/341 358/356/340
f 316/315/299 360/358/342 359/357/341
f 317/316/300 361/359/343 360/358/342
f 318/317/301 362/360/344 361/359/343
f 319/318/302 363/361/345 362/360/344
f 320/319/303 364/362/346 363/361/345
f 321/320/304 365/363/347 364/362/346
f 322/321/305 366/364/348 365/363/347
f 323/322/306 367/365/349 366/364/348
f 324/323/307 368/366/350 367/365/349
f 325/324/308 369/368/352 368/366/350
f 326/367/351 370/413/397 369/368/352
f 328/325/309 372/371/355 371/369/353
f 329/327/311 373/372/356 372/371/355
f 330/328/312 374/373/357 373/372/356
f 331/329/313 375/374/358 374/373/357
f 332/330/314 376/375/359 375/374/358
f 333/331/315 377/376/360 376/375/359
f 334/332/316 378/377/361 377/376/360
f 335/333/317 379/378/362 378/377/361
f 336/334/318 380/379/363 379/378/362
f 337/335/319 381/380/364 380/379/363
f 338/336/320 382/381/365 381/380/364
f 339/337/321 383/382/366 382/381/365
f 340/338/322 384/383/367 383/382/366
f 341/339/323 385/384/368 384/383/367
f 342/340/324 386/385/369 385/384/368
f 343/341/325 387/386/370 386/385/369
f 344/342/326 388/387/371 387/386/370
f 345/343/327 389/388/372 388/387/371
f 346/344/328 390/389/373 389/388/372
f 347/345/329 391/390/374 390/389/373
f 348/346/330 392/434/398 391/390/374
f 393/391/375 392/434/398 348/346/330
f 394/392/376 393/391/375 349/347/331
f 395/393/377 394/392/376 350/348/332
f 396/394/378 395/393/377 351/349/333
f 397/395/379 396/394/378 352/350/334
f 398/396/380 397/395/379 353/351/335
f 399/397/381 398/396/380 354/352/336
f 400/398/382 399/397/381 355/353/337
f 401/399/383 400/398/382 356/354/338
f 402/400/384 401/399/383 357/355/339
f 403/401/385 402/400/384 358/356/340
f 404/402/386 403/401/385 359/357/341
f 405/403/387 404/402/386 360/358/342
f 406/404/388 405/403/387 361/359/343
f 407/405/389 406/404/388 362/360/344
f 408/406/390 407/405/389 363/361/345
f 409/407/391 408/406/390 364/362/346
f 410/408/392 409/407/391 365/363/347
f 411/409/393 410/408/392 366/364/348
f 412/410/394 411/409/393 367/365/349
f 413/411/395 412/410/394 368/366/350
f 414/412/396 413/411/395 369/368/352
f 372/371/355 20/415/5 19/414/4
f 373/372/356 21/416/7 20/415/5
f 374/373/357 22/417/9 21/416/7
f 375/374/358 23/418/11 22/417/9
f 376/375/359 24/419/13 23/418/11
f 377/376/360 25/420/15 24/419/13
f 378/377/361 26/421/17 25/420/15
f 379/378/362 27/422/19 26/421/17
f 380/379/363 28/423/21 27/422/19
f 381/380/364 29/424/23 28/423/21
f 382/381/365 30/425/25 29/424/23
f 383/382/366 31/426/27 30/425/25
f 384/383/367 32/427/29 31/426/27
f 385/384/368 33/428/31 32/427/29
f 386/385/369 34/429/33 33/428/31
f 387/386/370 35/430/35 34/429/33
f 388/387/371 36/431/37 35/430/35
f 389/388/372 37/432/39 36/431/37
f 390/389/373 38/433/41 37/432/39
f 391/390/374 39/435/43 38/433/41
f 392/434/398 40/458/45 39/435/43
f 41/436/47 40/458/45 392/434/398
f 42/437/48 41/436/47 393/391/375
f 43/438/49 42/437/48 394/392/376
f 44/439/51 43/438/49 395/393/377
f 45/440/53 44/439/51 396/394/378
f 46/441/55 45/440/53 397/395/379
f 47/442/57 46/441/55 398/396/380
f 48/443/59 47/442/57 399/397/381
f 49/444/61 48/443/59 400/398/382
f 50/445/63 49/444/61 401/399/383
f 51/446/65 50/445/63 402/400/384
f 52/447/67 51/446/65 403/401/385
f 53/448/69 52/447/67 404/402/386
f 54/449/71 53/448/69 405/403/387
f 55/450/73 54/449/71 406/404/388
f 56/451/75 55/450/73 407/405/389
f 57/452/77 56/451/75 408/406/390
f 58/453/79 57/452/77 409/407/391
f 59/454/81 58/453/79 410/408/392
f 60/455/83 59/454/81 411/409/393
f 61/456/85 60/455/83 412/410/394
f 62/457/87 61/456/85 413/411/395
