D:\REPO_RTR_2020\rtr2020_prasanna_eknath_pawar\C\RTR2020_C_Snippets_Upload_08_19.06.2020\12-StructsAndUnions\06-StructWithinStruct\05-ArrayWithinStruct>cl StructWithinStruct-C.cpp
Microsoft (R) C/C++ Optimizing Compiler Version 19.00.24234.1 for x64
Copyright (C) Microsoft Corporation.  All rights reserved.

StructWithinStruct-C.cpp
Microsoft (R) Incremental Linker Version 14.00.24234.1
Copyright (C) Microsoft Corporation.  All rights reserved.

/out:StructWithinStruct-C.exe
StructWithinStruct-C.obj

D:\REPO_RTR_2020\rtr2020_prasanna_eknath_pawar\C\RTR2020_C_Snippets_Upload_08_19.06.2020\12-StructsAndUnions\06-StructWithinStruct\05-ArrayWithinStruct>StructWithinStruct-C.exe


Table Of 3 :

3 * 1 = 3

3 * 2 = 6

3 * 3 = 9

3 * 4 = 12

3 * 5 = 15

3 * 6 = 18

3 * 7 = 21

3 * 8 = 24

3 * 9 = 27

3 * 10 = 30



Table Of 4 :

4 * 1 = 4

4 * 2 = 8

4 * 3 = 12

4 * 4 = 16

4 * 5 = 20

4 * 6 = 24

4 * 7 = 28

4 * 8 = 32

4 * 9 = 36

4 * 10 = 40



Table Of 5 :

5 * 1 = 5

5 * 2 = 10

5 * 3 = 15

5 * 4 = 20

5 * 5 = 25

5 * 6 = 30

5 * 7 = 35

5 * 8 = 40

5 * 9 = 45

5 * 10 = 50


D:\REPO_RTR_2020\rtr2020_prasanna_eknath_pawar\C\RTR2020_C_Snippets_Upload_08_19.06.2020\12-StructsAndUnions\06-StructWithinStruct\05-ArrayWithinStruct>